{
  "applications": "*",
  "changelogDate": "20231109131323",
  "dto": "mapstruct",
  "entityTableName": "category",
  "fields": [
    {
      "fieldName": "category",
      "fieldType": "String"
    }
  ],
  "name": "Category",
  "relationships": [],
  "searchEngine": "no",
  "service": "serviceImpl"
}
