{
  "applications": "*",
  "changelogDate": "20231109131423",
  "dto": "mapstruct",
  "entityTableName": "comment",
  "fields": [
    {
      "fieldName": "comment",
      "fieldType": "String"
    }
  ],
  "name": "Comment",
  "relationships": [],
  "searchEngine": "no",
  "service": "serviceImpl"
}
